<svg width="40" height="40" viewBox="0 0 40 40" version="1.1" xmlns="http://www.w3.org/2000/svg" xmlns:xlink="http://www.w3.org/1999/xlink">
<title>menu</title>
<desc>Created using Figma</desc>
<g id="Canvas" transform="translate(1285 -1843)">
<g id="menu">
<g id="Oval 3">
<use xlink:href="#path0_fill" transform="translate(-1285 1843)" fill="#D8D8D8"/>
</g>
<g id="Oval 3 Copy 2">
<use xlink:href="#path0_fill" transform="translate(-1285 1873)" fill="#D8D8D8"/>
</g>
<g id="Oval 3 Copy">
<use xlink:href="#path0_fill" transform="translate(-1255 1843)" fill="#D8D8D8"/>
</g>
<g id="Oval 3 Copy 3">
<use xlink:href="#path0_fill" transform="translate(-1255 1873)" fill="#D8D8D8"/>
</g>
</g>
</g>
<defs>
<path id="path0_fill" fill-rule="evenodd" d="M 5 10C 7.76142 10 10 7.76142 10 5C 10 2.23858 7.76142 0 5 0C 2.23858 0 0 2.23858 0 5C 0 7.76142 2.23858 10 5 10Z"/>
</defs>
</svg>
